{
  "type": "service_account",
  "project_id": "edc-hepytech",
  "private_key_id": "9561c5f11ba95b7ceb37c938b6f83bf9836ff820",
  "private_key": "-----BEGIN PRIVATE KEY-----\nMIIEvQIBADANBgkqhkiG9w0BAQEFAASCBKcwggSjAgEAAoIBAQDWuCEdFvvdZ3tc\nXkmVuYy2B2W5SwdKGImo3wmeAcjZv8J5dLsQjfqvwpv+yE5Byl01ZpcKNmdq9rfb\nEfS+ejNQt68h16Fe9/7YFfMuEVRpUCqKD1WqVgtcFNlif3tJ5aXWTBkQPzWz4+6p\nENO7i5pOYvf+qr3TMotNF24Sc1NHV262dmco/76bUUfXBb/50yFOFZf4XvSX6Deu\nvzgGpJ258UofXQ8bwNYbbfAvKlGpFW5r2eWFcXQ6LV2/gm8Qv/3iSOXlgGKDCrbo\nqZNA6zPHPlBz8VrmvP6iBOdJgYu2dtwAVg4JyFChhZF5lYqtzHiR4LWpZGxMIQmO\nJ7eR/y23AgMBAAECggEAKoWDVUHwdeug0+1+MA7zTTcQz42Kr4NFe7JTsr1Su8CM\ncEYMJ56eVwE4qE+do8zCAanD3otglp+uUE1xhOkpUWJW5eJQfECrcLqEEorvBv4P\ntpCL2/Q3QrCETkvFrCA048flLMD/zxSj9ko1TA487CoQR5gjiHgZexZZP4EkLFvI\nxhDYuL+UM3/4JEMq+1UGwGJQE5TvQ+lpHPjFBSH32shJGEFCC0T6imHWwzGXVrGf\nL0C0dcCrGEEEtohFpkAjFfKWw7JcfKnbdoR8cZrBMXM2xoTcpTzRDKmklIT+GJ/B\nB0zTDG02zCvICdR9d3+tgALllG+BEuigMPrNCyyZJQKBgQD1SMS9S7JHkBWcvnIS\n4EN5cz3fXD/Iuxq7yrB0RmZA/gkJf3zohuqSYpzY1abnUAUMZDTKEH4SV635mbW4\n354/whLFfFiaJ+Ugn40SeGYRyxp0nXk2dXU5lrV6XzpOtnYV1y7vOxZ9Wr9r0cz/\nEdLCjwGECVLxilXpATU1OL+gxQKBgQDgGYZ9ZxDAr3MaO0baRRqRHSCESqNKvCyW\nUxd0Ihll4aXrgDNEAqy/T6znKThAwJTJ9oagx0o26mAguhJ+sgTKKo3AG6dXE0Wy\nXdLSQ+K9zEeEV987QJ6keo4YvF34DyAI+lauHSpC5GoCABnnottJCYBf0wks1dwR\nou5Oq3gESwKBgGF5dZW0SzjdLXmIxVRzAt10ypXE1yQyFsGiHtVWVLRnP7gijcTq\nOLXLsoEJBrbNufPerovOWgt4BI84YlsBoqW7vjH05FD+obOBNFKuvgE8MVs+aTkX\nHGqyVZQ327gEEpFDXkd7t8hBE+kJCuoibxsaMYQDII8UZmeeL0LjNmPxAoGAMGmT\nQlgXqGi+xvXzUogHOz49nha5vBV21GrS8EXFktryizPA33psc0/1HGMtQd/YxOC7\nKNSk1cRATBGmmTRAEKSsxsmylv8U2XmnZ8E+pJ4S/SY2lYhaPVI0jGd1LXenBgl+\n3FJ0pMrPk+sNrZrjIJ4q24itvL/esPiv3tLwNI0CgYEAxIKhQoC8EKecA5M4aiXK\nahvoj8DIyHQAntJmTNstkvht170ZDsVva1EHm853gcsQIicsBLzslQ/drG8cpXFC\nHMzstcpL6eNX4SexePS21U1oSwUYVRQeVo3EMZVAC6Viv+ON7s+xjWgnm/2AGHmN\nyM+0AJfnFREQUheer3xhDNc=\n-----END PRIVATE KEY-----\n",
  "client_email": "edc-875@edc-hepytech.iam.gserviceaccount.com",
  "client_id": "113978033494560948396",
  "auth_uri": "https://accounts.google.com/o/oauth2/auth",
  "token_uri": "https://oauth2.googleapis.com/token",
  "auth_provider_x509_cert_url": "https://www.googleapis.com/oauth2/v1/certs",
  "client_x509_cert_url": "https://www.googleapis.com/robot/v1/metadata/x509/edc-875%40edc-hepytech.iam.gserviceaccount.com",
  "universe_domain": "googleapis.com"
}
